{
	"protocol":"http",
	"serverHost":null,
	"port":80,
	"httpBasicAuth":false,
	"totalTestTimeout":null,
	"serverAnswerTimeout":3000,
	"searchDOMTimeout":100,
	"seleniumPort":null,
	"usePopulate":false,
	"populateScript":null,
	"startWebServer":false,
	"webServerScript":null,
	"logServerOutput":false,
	"logPath":null
}
